…
I want to get a handle on wrangling the data, so I’ll only load in one
decade of census bureau data, and only focus on one state for now.

``` r
# read in census bureau data
f_cb2010_2019 <- read_csv("https://www2.census.gov/programs-surveys/popest/tables/2010-2019/state/asrh/sc-est2019-alldata5.csv")

# initial wrangling
f_cb2010_2019 %>%
  filter(NAME == "Alabama") %>%
  select(-SUMLEV, -REGION, -DIVISION, -STATE, -CENSUS2010POP, -ESTIMATESBASE2010)
```

    ## # A tibble: 3,870 x 15
    ##    NAME      SEX ORIGIN  RACE   AGE POPESTIMATE2010 POPESTIMATE2011
    ##    <chr>   <dbl>  <dbl> <dbl> <dbl>           <dbl>           <dbl>
    ##  1 Alabama     0      0     1     0           39992           41121
    ##  2 Alabama     0      0     1     1           40096           39919
    ##  3 Alabama     0      0     1     2           41550           40232
    ##  4 Alabama     0      0     1     3           41716           41702
    ##  5 Alabama     0      0     1     4           41250           41722
    ##  6 Alabama     0      0     1     5           41282           41307
    ##  7 Alabama     0      0     1     6           41461           41435
    ##  8 Alabama     0      0     1     7           41277           41633
    ##  9 Alabama     0      0     1     8           41138           41392
    ## 10 Alabama     0      0     1     9           43072           41176
    ## # ... with 3,860 more rows, and 8 more variables: POPESTIMATE2012 <dbl>,
    ## #   POPESTIMATE2013 <dbl>, POPESTIMATE2014 <dbl>, POPESTIMATE2015 <dbl>,
    ## #   POPESTIMATE2016 <dbl>, POPESTIMATE2017 <dbl>, POPESTIMATE2018 <dbl>,
    ## #   POPESTIMATE2019 <dbl>
…
f_cb2010_2019 %>%
  filter(NAME == "Alabama") %>%
  select(-SUMLEV, -REGION, -DIVISION, -STATE, -CENSUS2010POP, -ESTIMATESBASE2010) %>%
  pivot_longer(cols = starts_with("POPESTIMATE"),
               names_to = "year",
               names_prefix = "POPESTIMATE",
               values_to = "pop") %>%
  rename(name = NAME,
         sex = SEX,
         origin = ORIGIN,
         race = RACE,
         age = AGE)
```

    ## # A tibble: 38,700 x 7
    ##    name      sex origin  race   age year    pop
    ##    <chr>   <dbl>  <dbl> <dbl> <dbl> <chr> <dbl>
    ##  1 Alabama     0      0     1     0 2010  39992
    ##  2 Alabama     0      0     1     0 2011  41121
    ##  3 Alabama     0      0     1     0 2012  40263
    ##  4 Alabama     0      0     1     0 2013  39189
    ##  5 Alabama     0      0     1     0 2014  40105
    ##  6 Alabama     0      0     1     0 2015  40331
    ##  7 Alabama     0      0     1     0 2016  40231
    ##  8 Alabama     0      0     1     0 2017  40165
    ##  9 Alabama     0      0     1     0 2018  38838
    ## 10 Alabama     0      0     1     0 2019  37673
    ## # ... with 38,690 more rows
…
               names_prefix = "POPESTIMATE",
               values_to = "pop") %>%
  rename(name = NAME,
         sex = SEX,
         origin = ORIGIN,
         race = RACE,
         age = AGE) %>%
  pivot_wider(names_from = sex,
              values_from = pop) %>%
  rename(total = "0",
         male = "1",
         female = "2")
```

    ## # A tibble: 12,900 x 8
    ##    name    origin  race   age year  total  male female
    ##    <chr>    <dbl> <dbl> <dbl> <chr> <dbl> <dbl>  <dbl>
    ##  1 Alabama      0     1     0 2010  39992 20374  19618
    ##  2 Alabama      0     1     0 2011  41121 21202  19919
    ##  3 Alabama      0     1     0 2012  40263 20567  19696
    ##  4 Alabama      0     1     0 2013  39189 20030  19159
    ##  5 Alabama      0     1     0 2014  40105 20526  19579
    ##  6 Alabama      0     1     0 2015  40331 20556  19775
    ##  7 Alabama      0     1     0 2016  40231 20549  19682
    ##  8 Alabama      0     1     0 2017  40165 20537  19628
    ##  9 Alabama      0     1     0 2018  38838 19866  18972
    ## 10 Alabama      0     1     0 2019  37673 19313  18360
    ## # ... with 12,890 more rows
…
         sex = SEX,
         origin = ORIGIN,
         race = RACE,
         age = AGE) %>%
  pivot_wider(names_from = sex,
              values_from = pop) %>%
  rename(total = "0",
         male = "1",
         female = "2") %>%
  group_by(year) %>%
  mutate(pop_year = sum(total)) %>%
  arrange(year)
```

    ## # A tibble: 12,900 x 9
    ## # Groups:   year [10]
    ##    name    origin  race   age year  total  male female pop_year
    ##    <chr>    <dbl> <dbl> <dbl> <chr> <dbl> <dbl>  <dbl>    <dbl>
    ##  1 Alabama      0     1     0 2010  39992 20374  19618  9708872
    ##  2 Alabama      0     1     1 2010  40096 20530  19566  9708872
    ##  3 Alabama      0     1     2 2010  41550 21105  20445  9708872
    ##  4 Alabama      0     1     3 2010  41716 21404  20312  9708872
    ##  5 Alabama      0     1     4 2010  41250 21210  20040  9708872
    ##  6 Alabama      0     1     5 2010  41282 21208  20074  9708872
    ##  7 Alabama      0     1     6 2010  41461 21243  20218  9708872
    ##  8 Alabama      0     1     7 2010  41277 21126  20151  9708872
    ##  9 Alabama      0     1     8 2010  41138 20955  20183  9708872
    ## 10 Alabama      0     1     9 2010  43072 22057  21015  9708872
    ## # ... with 12,890 more rows
…
  select(-SUMLEV, -REGION, -DIVISION, -STATE, -CENSUS2010POP, -ESTIMATESBASE2010) %>%
  pivot_longer(cols = starts_with("POPESTIMATE"),
               names_to = "year",
               names_prefix = "POPESTIMATE",
               values_to = "pop") %>%
  rename(name = NAME,
         sex = SEX,
         origin = ORIGIN,
         race = RACE,
         age = AGE) %>%
  filter(sex != 0,
         origin != 0)
```

    ## # A tibble: 17,200 x 7
    ##    name      sex origin  race   age year    pop
    ##    <chr>   <dbl>  <dbl> <dbl> <dbl> <chr> <dbl>
    ##  1 Alabama     1      1     1     0 2010  17998
    ##  2 Alabama     1      1     1     0 2011  18552
    ##  3 Alabama     1      1     1     0 2012  18172
    ##  4 Alabama     1      1     1     0 2013  17847
    ##  5 Alabama     1      1     1     0 2014  18282
    ##  6 Alabama     1      1     1     0 2015  18262
    ##  7 Alabama     1      1     1     0 2016  18133
    ##  8 Alabama     1      1     1     0 2017  18163
    ##  9 Alabama     1      1     1     0 2018  17550
    ## 10 Alabama     1      1     1     0 2019  17045
    ## # ... with 17,190 more rows
…
         female = "2") %>%
  group_by(year) %>%
  mutate(tot_male = sum(male),
         tot_female = sum(female)) %>%
  ungroup() %>%
  mutate(tot_pop = tot_male + tot_female,
         pct_male = tot_male/tot_pop) %>%
  select(-tot_male, -tot_female, -tot_pop) %>%
  mutate(tot_row = male + female) %>%
  select(-male, -female) %>%
  relocate(tot_row, .after = year) %>%
  arrange(year)
```

    ## # A tibble: 8,600 x 7
    ##    name    origin  race   age year  tot_row pct_male
    ##    <chr>    <dbl> <dbl> <dbl> <chr>   <dbl>    <dbl>
    ##  1 Alabama      1     1     0 2010    35295    0.485
    ##  2 Alabama      1     1     1 2010    35714    0.485
    ##  3 Alabama      1     1     2 2010    37114    0.485
    ##  4 Alabama      1     1     3 2010    37294    0.485
    ##  5 Alabama      1     1     4 2010    37166    0.485
    ##  6 Alabama      1     1     5 2010    37524    0.485
    ##  7 Alabama      1     1     6 2010    37892    0.485
    ##  8 Alabama      1     1     7 2010    37903    0.485
    ##  9 Alabama      1     1     8 2010    37975    0.485
    ## 10 Alabama      1     1     9 2010    39956    0.485
    ## # ... with 8,590 more rows
…
  mutate(tot_male = sum(male),
         tot_female = sum(female)) %>%
  ungroup() %>%
  mutate(tot_pop = tot_male + tot_female,
         pct_male = tot_male/tot_pop) %>%
  select(-tot_male, -tot_female, -tot_pop) %>%
  mutate(tot_row = male + female) %>%
  select(-male, -female) %>%
  relocate(tot_row, .after = year) %>%
  arrange(year) %>%
  mutate(race = if_else(origin == 1, race, 6)) %>%
  select(-origin)
```

    ## # A tibble: 8,600 x 6
    ##    name     race   age year  tot_row pct_male
    ##    <chr>   <dbl> <dbl> <chr>   <dbl>    <dbl>
    ##  1 Alabama     1     0 2010    35295    0.485
    ##  2 Alabama     1     1 2010    35714    0.485
    ##  3 Alabama     1     2 2010    37114    0.485
    ##  4 Alabama     1     3 2010    37294    0.485
    ##  5 Alabama     1     4 2010    37166    0.485
    ##  6 Alabama     1     5 2010    37524    0.485
    ##  7 Alabama     1     6 2010    37892    0.485
    ##  8 Alabama     1     7 2010    37903    0.485
    ##  9 Alabama     1     8 2010    37975    0.485
    ## 10 Alabama     1     9 2010    39956    0.485
    ## # ... with 8,590 more rows
…
         asian = "4",
         pac_island = "5",
         hispanic = "6") %>%
  mutate(tot_row = white + black + nat_american + asian + pac_island + hispanic) %>%
  group_by(year) %>%
  mutate(pct_white = sum(white)/sum(tot_row),
         pct_black = sum(black)/sum(tot_row), 
         pct_nat_american = sum(nat_american)/sum(tot_row),
         pct_asian = sum(asian)/sum(tot_row),
         pct_pac_island = sum(pac_island)/sum(tot_row),
         pct_hispanic = sum(hispanic)/sum(tot_row)) %>%
  select(-white, -black, -nat_american, -asian, -pac_island, -hispanic)
```

    ## # A tibble: 860 x 11
    ## # Groups:   year [10]
    ##    name      age year  pct_male tot_row pct_white pct_black pct_nat_american
    ##    <chr>   <dbl> <chr>    <dbl>   <dbl>     <dbl>     <dbl>            <dbl>
    ##  1 Alabama     0 2010     0.485   61707     0.672     0.263           0.0110
    ##  2 Alabama     1 2010     0.485   62085     0.672     0.263           0.0110
    ##  3 Alabama     2 2010     0.485   64312     0.672     0.263           0.0110
    ##  4 Alabama     3 2010     0.485   64212     0.672     0.263           0.0110
    ##  5 Alabama     4 2010     0.485   63113     0.672     0.263           0.0110
    ##  6 Alabama     5 2010     0.485   62605     0.672     0.263           0.0110
    ##  7 Alabama     6 2010     0.485   62569     0.672     0.263           0.0110
    ##  8 Alabama     7 2010     0.485   62280     0.672     0.263           0.0110
    ##  9 Alabama     8 2010     0.485   62676     0.672     0.263           0.0110
    ## 10 Alabama     9 2010     0.485   65888     0.672     0.263           0.0110
    ## # ... with 850 more rows, and 3 more variables: pct_asian <dbl>,
    ## #   pct_pac_island <dbl>, pct_hispanic <dbl>
…
  mutate(tot_row = white + black + nat_american + asian + pac_island + hispanic) %>%
  group_by(year) %>%
  mutate(pct_white = sum(white)/sum(tot_row),
         pct_black = sum(black)/sum(tot_row), 
         pct_nat_american = sum(nat_american)/sum(tot_row),
         pct_asian = sum(asian)/sum(tot_row),
         pct_pac_island = sum(pac_island)/sum(tot_row),
         pct_hispanic = sum(hispanic)/sum(tot_row)) %>%
  ungroup() %>%
  select(-white, -black, -nat_american, -asian, -pac_island, -hispanic) %>%
  mutate(pct_aapi = pct_asian + pct_pac_island) %>%
  select(-pct_asian, -pct_pac_island)
```

    ## # A tibble: 860 x 10
    ##    name      age year  pct_male tot_row pct_white pct_black pct_nat_american
    ##    <chr>   <dbl> <chr>    <dbl>   <dbl>     <dbl>     <dbl>            <dbl>
    ##  1 Alabama     0 2010     0.485   61707     0.672     0.263           0.0110
    ##  2 Alabama     1 2010     0.485   62085     0.672     0.263           0.0110
    ##  3 Alabama     2 2010     0.485   64312     0.672     0.263           0.0110
    ##  4 Alabama     3 2010     0.485   64212     0.672     0.263           0.0110
    ##  5 Alabama     4 2010     0.485   63113     0.672     0.263           0.0110
    ##  6 Alabama     5 2010     0.485   62605     0.672     0.263           0.0110
    ##  7 Alabama     6 2010     0.485   62569     0.672     0.263           0.0110
    ##  8 Alabama     7 2010     0.485   62280     0.672     0.263           0.0110
    ##  9 Alabama     8 2010     0.485   62676     0.672     0.263           0.0110
    ## 10 Alabama     9 2010     0.485   65888     0.672     0.263           0.0110
    ## # ... with 850 more rows, and 2 more variables: pct_hispanic <dbl>,
    ## #   pct_aapi <dbl>
…
