…
I want to get a handle on wrangling the data, so I’ll only load in one
decade of census bureau data, and only focus on one state for now.

``` r
# read in census bureau data
f_cb2010_2019 <- read_csv("https://www2.census.gov/programs-surveys/popest/tables/2010-2019/state/asrh/sc-est2019-alldata5.csv")

# initial wrangling
f_cb2010_2019 %>%
  filter(NAME == "Alabama") %>%
  select(-SUMLEV, -REGION, -DIVISION, -STATE, -CENSUS2010POP, -ESTIMATESBASE2010)
```

    ## # A tibble: 3,870 x 15
    ##    NAME      SEX ORIGIN  RACE   AGE POPESTIMATE2010 POPESTIMATE2011
    ##    <chr>   <dbl>  <dbl> <dbl> <dbl>           <dbl>           <dbl>
    ##  1 Alabama     0      0     1     0           39992           41121
    ##  2 Alabama     0      0     1     1           40096           39919
    ##  3 Alabama     0      0     1     2           41550           40232
    ##  4 Alabama     0      0     1     3           41716           41702
    ##  5 Alabama     0      0     1     4           41250           41722
    ##  6 Alabama     0      0     1     5           41282           41307
    ##  7 Alabama     0      0     1     6           41461           41435
    ##  8 Alabama     0      0     1     7           41277           41633
    ##  9 Alabama     0      0     1     8           41138           41392
    ## 10 Alabama     0      0     1     9           43072           41176
    ## # ... with 3,860 more rows, and 8 more variables: POPESTIMATE2012 <dbl>,
    ## #   POPESTIMATE2013 <dbl>, POPESTIMATE2014 <dbl>, POPESTIMATE2015 <dbl>,
    ## #   POPESTIMATE2016 <dbl>, POPESTIMATE2017 <dbl>, POPESTIMATE2018 <dbl>,
    ## #   POPESTIMATE2019 <dbl>
…
f_cb2010_2019 %>%
  filter(NAME == "Alabama") %>%
  select(-SUMLEV, -REGION, -DIVISION, -STATE, -CENSUS2010POP, -ESTIMATESBASE2010) %>%
  pivot_longer(cols = starts_with("POPESTIMATE"),
               names_to = "year",
               names_prefix = "POPESTIMATE",
               values_to = "pop") %>%
  rename(state = NAME,
         sex = SEX,
         origin = ORIGIN,
         race = RACE,
         age = AGE)
```

    ## # A tibble: 38,700 x 7
    ##    state     sex origin  race   age year    pop
    ##    <chr>   <dbl>  <dbl> <dbl> <dbl> <chr> <dbl>
    ##  1 Alabama     0      0     1     0 2010  39992
    ##  2 Alabama     0      0     1     0 2011  41121
    ##  3 Alabama     0      0     1     0 2012  40263
    ##  4 Alabama     0      0     1     0 2013  39189
    ##  5 Alabama     0      0     1     0 2014  40105
    ##  6 Alabama     0      0     1     0 2015  40331
    ##  7 Alabama     0      0     1     0 2016  40231
    ##  8 Alabama     0      0     1     0 2017  40165
    ##  9 Alabama     0      0     1     0 2018  38838
    ## 10 Alabama     0      0     1     0 2019  37673
    ## # ... with 38,690 more rows
…
               names_prefix = "POPESTIMATE",
               values_to = "pop") %>%
  rename(state = NAME,
         sex = SEX,
         origin = ORIGIN,
         race = RACE,
         age = AGE) %>%
  pivot_wider(names_from = sex,
              values_from = pop) %>%
  rename(total = "0",
         male = "1",
         female = "2")
```

    ## # A tibble: 12,900 x 8
    ##    state   origin  race   age year  total  male female
    ##    <chr>    <dbl> <dbl> <dbl> <chr> <dbl> <dbl>  <dbl>
    ##  1 Alabama      0     1     0 2010  39992 20374  19618
    ##  2 Alabama      0     1     0 2011  41121 21202  19919
    ##  3 Alabama      0     1     0 2012  40263 20567  19696
    ##  4 Alabama      0     1     0 2013  39189 20030  19159
    ##  5 Alabama      0     1     0 2014  40105 20526  19579
    ##  6 Alabama      0     1     0 2015  40331 20556  19775
    ##  7 Alabama      0     1     0 2016  40231 20549  19682
    ##  8 Alabama      0     1     0 2017  40165 20537  19628
    ##  9 Alabama      0     1     0 2018  38838 19866  18972
    ## 10 Alabama      0     1     0 2019  37673 19313  18360
    ## # ... with 12,890 more rows
…
         sex = SEX,
         origin = ORIGIN,
         race = RACE,
         age = AGE) %>%
  pivot_wider(names_from = sex,
              values_from = pop) %>%
  rename(total = "0",
         male = "1",
         female = "2") %>%
  group_by(year) %>%
  mutate(pop_year = sum(total)) %>%
  arrange(year)
```

    ## # A tibble: 12,900 x 9
    ## # Groups:   year [10]
    ##    state   origin  race   age year  total  male female pop_year
    ##    <chr>    <dbl> <dbl> <dbl> <chr> <dbl> <dbl>  <dbl>    <dbl>
    ##  1 Alabama      0     1     0 2010  39992 20374  19618  9708872
    ##  2 Alabama      0     1     1 2010  40096 20530  19566  9708872
    ##  3 Alabama      0     1     2 2010  41550 21105  20445  9708872
    ##  4 Alabama      0     1     3 2010  41716 21404  20312  9708872
    ##  5 Alabama      0     1     4 2010  41250 21210  20040  9708872
    ##  6 Alabama      0     1     5 2010  41282 21208  20074  9708872
    ##  7 Alabama      0     1     6 2010  41461 21243  20218  9708872
    ##  8 Alabama      0     1     7 2010  41277 21126  20151  9708872
    ##  9 Alabama      0     1     8 2010  41138 20955  20183  9708872
    ## 10 Alabama      0     1     9 2010  43072 22057  21015  9708872
    ## # ... with 12,890 more rows
…
  select(-SUMLEV, -REGION, -DIVISION, -STATE, -CENSUS2010POP, -ESTIMATESBASE2010) %>%
  pivot_longer(cols = starts_with("POPESTIMATE"),
               names_to = "year",
               names_prefix = "POPESTIMATE",
               values_to = "pop") %>%
  rename(state = NAME,
         sex = SEX,
         origin = ORIGIN,
         race = RACE,
         age = AGE) %>%
  filter(sex != 0,
         origin != 0)
```

    ## # A tibble: 17,200 x 7
    ##    state     sex origin  race   age year    pop
    ##    <chr>   <dbl>  <dbl> <dbl> <dbl> <chr> <dbl>
    ##  1 Alabama     1      1     1     0 2010  17998
    ##  2 Alabama     1      1     1     0 2011  18552
    ##  3 Alabama     1      1     1     0 2012  18172
    ##  4 Alabama     1      1     1     0 2013  17847
    ##  5 Alabama     1      1     1     0 2014  18282
    ##  6 Alabama     1      1     1     0 2015  18262
    ##  7 Alabama     1      1     1     0 2016  18133
    ##  8 Alabama     1      1     1     0 2017  18163
    ##  9 Alabama     1      1     1     0 2018  17550
    ## 10 Alabama     1      1     1     0 2019  17045
    ## # ... with 17,190 more rows
…
         female = "2") %>%
  group_by(year) %>%
  mutate(tot_male = sum(male),
         tot_female = sum(female)) %>%
  ungroup() %>%
  mutate(tot_pop = tot_male + tot_female,
         pct_male = tot_male/tot_pop) %>%
  select(-tot_male, -tot_female, -tot_pop) %>%
  mutate(tot_row = male + female) %>%
  select(-male, -female) %>%
  relocate(tot_row, .after = year) %>%
  arrange(year)
```

    ## # A tibble: 8,600 x 7
    ##    state   origin  race   age year  tot_row pct_male
    ##    <chr>    <dbl> <dbl> <dbl> <chr>   <dbl>    <dbl>
    ##  1 Alabama      1     1     0 2010    35295    0.485
    ##  2 Alabama      1     1     1 2010    35714    0.485
    ##  3 Alabama      1     1     2 2010    37114    0.485
    ##  4 Alabama      1     1     3 2010    37294    0.485
    ##  5 Alabama      1     1     4 2010    37166    0.485
    ##  6 Alabama      1     1     5 2010    37524    0.485
    ##  7 Alabama      1     1     6 2010    37892    0.485
    ##  8 Alabama      1     1     7 2010    37903    0.485
    ##  9 Alabama      1     1     8 2010    37975    0.485
    ## 10 Alabama      1     1     9 2010    39956    0.485
    ## # ... with 8,590 more rows
…
  mutate(tot_male = sum(male),
         tot_female = sum(female)) %>%
  ungroup() %>%
  mutate(tot_pop = tot_male + tot_female,
         pct_male = tot_male/tot_pop) %>%
  select(-tot_male, -tot_female, -tot_pop) %>%
  mutate(tot_row = male + female) %>%
  select(-male, -female) %>%
  relocate(tot_row, .after = year) %>%
  arrange(year) %>%
  mutate(race = if_else(origin == 1, race, 6)) %>%
  select(-origin)
```

    ## # A tibble: 8,600 x 6
    ##    state    race   age year  tot_row pct_male
    ##    <chr>   <dbl> <dbl> <chr>   <dbl>    <dbl>
    ##  1 Alabama     1     0 2010    35295    0.485
    ##  2 Alabama     1     1 2010    35714    0.485
    ##  3 Alabama     1     2 2010    37114    0.485
    ##  4 Alabama     1     3 2010    37294    0.485
    ##  5 Alabama     1     4 2010    37166    0.485
    ##  6 Alabama     1     5 2010    37524    0.485
    ##  7 Alabama     1     6 2010    37892    0.485
    ##  8 Alabama     1     7 2010    37903    0.485
    ##  9 Alabama     1     8 2010    37975    0.485
    ## 10 Alabama     1     9 2010    39956    0.485
    ## # ... with 8,590 more rows
…
         asian = "4",
         pac_island = "5",
         hispanic = "6") %>%
  mutate(tot_row = white + black + nat_american + asian + pac_island + hispanic) %>%
  group_by(year) %>%
  mutate(pct_white = sum(white)/sum(tot_row),
         pct_black = sum(black)/sum(tot_row), 
         pct_nat_american = sum(nat_american)/sum(tot_row),
         pct_asian = sum(asian)/sum(tot_row),
         pct_pac_island = sum(pac_island)/sum(tot_row),
         pct_hispanic = sum(hispanic)/sum(tot_row)) %>%
  select(-white, -black, -nat_american, -asian, -pac_island, -hispanic)
```

    ## # A tibble: 860 x 11
    ## # Groups:   year [10]
    ##    state     age year  pct_male tot_row pct_white pct_black pct_nat_american
    ##    <chr>   <dbl> <chr>    <dbl>   <dbl>     <dbl>     <dbl>            <dbl>
    ##  1 Alabama     0 2010     0.485   61707     0.672     0.263           0.0110
    ##  2 Alabama     1 2010     0.485   62085     0.672     0.263           0.0110
    ##  3 Alabama     2 2010     0.485   64312     0.672     0.263           0.0110
    ##  4 Alabama     3 2010     0.485   64212     0.672     0.263           0.0110
    ##  5 Alabama     4 2010     0.485   63113     0.672     0.263           0.0110
    ##  6 Alabama     5 2010     0.485   62605     0.672     0.263           0.0110
    ##  7 Alabama     6 2010     0.485   62569     0.672     0.263           0.0110
    ##  8 Alabama     7 2010     0.485   62280     0.672     0.263           0.0110
    ##  9 Alabama     8 2010     0.485   62676     0.672     0.263           0.0110
    ## 10 Alabama     9 2010     0.485   65888     0.672     0.263           0.0110
    ## # ... with 850 more rows, and 3 more variables: pct_asian <dbl>,
    ## #   pct_pac_island <dbl>, pct_hispanic <dbl>
…
  mutate(tot_row = white + black + nat_american + asian + pac_island + hispanic) %>%
  group_by(year) %>%
  mutate(pct_white = sum(white)/sum(tot_row),
         pct_black = sum(black)/sum(tot_row), 
         pct_nat_american = sum(nat_american)/sum(tot_row),
         pct_asian = sum(asian)/sum(tot_row),
         pct_pac_island = sum(pac_island)/sum(tot_row),
         pct_hispanic = sum(hispanic)/sum(tot_row)) %>%
  ungroup() %>%
  select(-white, -black, -nat_american, -asian, -pac_island, -hispanic) %>%
  mutate(pct_aapi = pct_asian + pct_pac_island) %>%
  select(-pct_asian, -pct_pac_island)
```

    ## # A tibble: 860 x 10
    ##    state     age year  pct_male tot_row pct_white pct_black pct_nat_american
    ##    <chr>   <dbl> <chr>    <dbl>   <dbl>     <dbl>     <dbl>            <dbl>
    ##  1 Alabama     0 2010     0.485   61707     0.672     0.263           0.0110
    ##  2 Alabama     1 2010     0.485   62085     0.672     0.263           0.0110
    ##  3 Alabama     2 2010     0.485   64312     0.672     0.263           0.0110
    ##  4 Alabama     3 2010     0.485   64212     0.672     0.263           0.0110
    ##  5 Alabama     4 2010     0.485   63113     0.672     0.263           0.0110
    ##  6 Alabama     5 2010     0.485   62605     0.672     0.263           0.0110
    ##  7 Alabama     6 2010     0.485   62569     0.672     0.263           0.0110
    ##  8 Alabama     7 2010     0.485   62280     0.672     0.263           0.0110
    ##  9 Alabama     8 2010     0.485   62676     0.672     0.263           0.0110
    ## 10 Alabama     9 2010     0.485   65888     0.672     0.263           0.0110
    ## # ... with 850 more rows, and 2 more variables: pct_hispanic <dbl>,
    ## #   pct_aapi <dbl>
…
I’ll start with just this initial import, & see if there’s anything
funky going on. I expect this to run pretty smoothly, since it’s
formatted the same for each state/district, but it’s always good to
double check. Let’s see what states/districts we’re working with.

``` r
f_cb2010_2019 %>%
  distinct(NAME, .keep_all = TRUE) %>%
  select(STATE, NAME)
```

    ## # A tibble: 51 x 2
    ##    STATE NAME                
    ##    <chr> <chr>               
    ##  1 01    Alabama             
    ##  2 02    Alaska              
    ##  3 04    Arizona             
    ##  4 05    Arkansas            
    ##  5 06    California          
    ##  6 08    Colorado            
    ##  7 09    Connecticut         
    ##  8 10    Delaware            
    ##  9 11    District of Columbia
    ## 10 12    Florida             
    ## # ... with 41 more rows

``` r
f_cb2010_2019 %>%
  distinct(STATE, .keep_all = TRUE) %>%
  select(STATE, NAME)
```

    ## # A tibble: 51 x 2
    ##    STATE NAME                
    ##    <chr> <chr>               
    ##  1 01    Alabama             
    ##  2 02    Alaska              
    ##  3 04    Arizona             
    ##  4 05    Arkansas            
    ##  5 06    California          
    ##  6 08    Colorado            
    ##  7 09    Connecticut         
    ##  8 10    Delaware            
    ##  9 11    District of Columbia
    ## 10 12    Florida             
    ## # ... with 41 more rows
…
  group_by(state, year) %>%
  mutate(pct_00_17 = sum(age_00_17)/sum(tot_row),
         pct_18_34 = sum(age_18_34)/sum(tot_row),
         pct_35_64 = sum(age_35_64)/sum(tot_row),
         pct_65_00 = sum(age_65_00)/sum(tot_row),
         pop = sum(tot_row)) %>%
  ungroup(state, year) %>%
  group_by(state) %>%
  distinct(year, .keep_all = TRUE) %>%
  ungroup() %>%
  select(-age_00_17, -age_18_34, -age_35_64, -age_65_00, -age, -tot_row) %>%
  relocate(pop, .after = year)
```

    ## # A tibble: 510 x 15
    ##    state year     pop pct_male pct_white pct_black pct_nat_american pct_hispanic
    ##    <chr> <chr>  <dbl>    <dbl>     <dbl>     <dbl>            <dbl>        <dbl>
    ##  1 Alab~ 2010  4.85e6    0.485     0.672    0.263           0.0110        0.0398
    ##  2 Alas~ 2010  7.68e5    0.519     0.649    0.0401          0.175         0.0590
    ##  3 Ariz~ 2010  6.57e6    0.497     0.579    0.0435          0.0449        0.297 
    ##  4 Arka~ 2010  2.97e6    0.491     0.746    0.157           0.0147        0.0649
    ##  5 Cali~ 2010  3.87e7    0.497     0.408    0.0633          0.00997       0.374 
    ##  6 Colo~ 2010  5.19e6    0.501     0.699    0.0438          0.0124        0.209 
    ##  7 Conn~ 2010  3.66e6    0.487     0.712    0.101           0.00613       0.137 
    ##  8 Dela~ 2010  9.21e5    0.484     0.654    0.217           0.00839       0.0832
    ##  9 Dist~ 2010  6.22e5    0.472     0.355    0.498           0.00796       0.0949
    ## 10 Flor~ 2010  1.92e7    0.489     0.580    0.157           0.00623       0.225 
    ## # ... with 500 more rows, and 7 more variables: pct_aapi <dbl>, avg_age <dbl>,
    ## #   avg_age_adult <dbl>, pct_00_17 <dbl>, pct_18_34 <dbl>, pct_35_64 <dbl>,
    ## #   pct_65_00 <dbl>

Coolio bo-boolio. Now the bigger test of checking that the other decades
on the census bureau’s site don’t have any data formatting issues.

### 2000s

``` r
f_cb2000_2009 <- read_csv("https://www2.census.gov/programs-surveys/popest/datasets/2000-2009/state/asrh/sc-est2009-alldata5-all.csv")

f_cb2000_2009
```

    ## # A tibble: 197,370 x 20
    ##    SUMLEV REGION DIVISION STATE   SEX ORIGIN  RACE   AGE CENSUS2000POP
    ##    <chr>   <dbl>    <dbl> <chr> <dbl>  <dbl> <dbl> <dbl>         <dbl>
    ##  1 040         3        6 01        0      0     1     0         39967
    ##  2 040         3        6 01        0      0     1     1         39983
    ##  3 040         3        6 01        0      0     1     2         39491
    ##  4 040         3        6 01        0      0     1     3         39699
    ##  5 040         3        6 01        0      0     1     4         40004
    ##  6 040         3        6 01        0      0     1     5         40238
    ##  7 040         3        6 01        0      0     1     6         40722
    ##  8 040         3        6 01        0      0     1     7         41456
    ##  9 040         3        6 01        0      0     1     8         41909
    ## 10 040         3        6 01        0      0     1     9         43116
    ## # ... with 197,360 more rows, and 11 more variables: ESTIMATESBASE2000 <dbl>,
    ## #   POPESTIMATE2000 <dbl>, POPESTIMATE2001 <dbl>, POPESTIMATE2002 <dbl>,
    ## #   POPESTIMATE2003 <dbl>, POPESTIMATE2004 <dbl>, POPESTIMATE2005 <dbl>,
    ## #   POPESTIMATE2006 <dbl>, POPESTIMATE2007 <dbl>, POPESTIMATE2008 <dbl>,
    ## #   POPESTIMATE2009 <dbl>
…
[This](https://www.census.gov/data/datasets/time-series/demo/popest/intercensal-1990-2000-state-and-county-characteristics.html)
gives state/county info each year for age group, race-sex, and ethnic
origin. The file structure is weird (fwf) but I may just be able to
manually drag/drop into a .csv. Let’s try reading it in first.

``` r
read_fwf("https://www2.census.gov/programs-surveys/popest/tables/1990-2000/intercensal/st-co/stch-icen1990.txt",
         fwf_empty("https://www2.census.gov/programs-surveys/popest/tables/1990-2000/intercensal/st-co/stch-icen1990.txt",
                   col_names = c("year", "state-county_FIPS", "age_group", "race-sex", "origin", "pop")))
```

    ## # A tibble: 954,864 x 6
    ##     year `state-county_FIPS` age_group `race-sex` origin   pop
    ##    <dbl> <chr>                   <dbl>      <dbl>  <dbl> <dbl>
    ##  1    90 01001                       0          1      1   239
    ##  2    90 01001                       0          2      1   203
    ##  3    90 01001                       1          1      1   821
    ##  4    90 01001                       1          2      1   769
    ##  5    90 01001                       2          1      1  1089
    ##  6    90 01001                       2          2      1   961
    ##  7    90 01001                       3          1      1  1144
    ##  8    90 01001                       3          2      1   974
    ##  9    90 01001                       4          1      1  1046
    ## 10    90 01001                       4          2      1  1018
    ## # ... with 954,854 more rows
…
